^C:\REPOSIT\C++PART2\HOMEWORK18\DEBUG\HOMEWORK18.OBJ
C:\REPOSIT\C++PART2\HOMEWORK18\DEBUG\HOMEWORK18.EXE
C:\REPOSIT\C++PART2\HOMEWORK18\DEBUG\HOMEWORK18.ILK
C:\REPOSIT\C++PART2\HOMEWORK18\DEBUG\HOMEWORK18.PDB
