^C:\REPOSIT\С++\HOMEWORK17\DEBUG\HOMEWORK17.OBJ
/OUT:"C:\REPOSIT\С++\HOMEWORK17\DEBUG\HOMEWORK17.EXE" /INCREMENTAL /NOLOGO KERNEL32.LIB USER32.LIB GDI32.LIB WINSPOOL.LIB COMDLG32.LIB ADVAPI32.LIB SHELL32.LIB OLE32.LIB OLEAUT32.LIB UUID.LIB ODBC32.LIB ODBCCP32.LIB /MANIFEST /MANIFESTUAC:"level='asInvoker' uiAccess='false'" /manifest:embed /DEBUG:FASTLINK /PDB:"C:\REPOSIT\С++\HOMEWORK17\DEBUG\HOMEWORK17.PDB" /SUBSYSTEM:CONSOLE /TLBID:1 /DYNAMICBASE /NXCOMPAT /IMPLIB:"C:\REPOSIT\С++\HOMEWORK17\DEBUG\HOMEWORK17.LIB" /MACHINE:X86 DEBUG\HOMEWORK17.OBJ
^C:\REPOSIT\C++PART2\HOMEWORK17\DEBUG\HOMEWORK17.OBJ
/OUT:"C:\REPOSIT\C++PART2\HOMEWORK17\DEBUG\HOMEWORK17.EXE" /INCREMENTAL /NOLOGO KERNEL32.LIB USER32.LIB GDI32.LIB WINSPOOL.LIB COMDLG32.LIB ADVAPI32.LIB SHELL32.LIB OLE32.LIB OLEAUT32.LIB UUID.LIB ODBC32.LIB ODBCCP32.LIB /MANIFEST /MANIFESTUAC:"level='asInvoker' uiAccess='false'" /manifest:embed /DEBUG:FASTLINK /PDB:"C:\REPOSIT\C++PART2\HOMEWORK17\DEBUG\HOMEWORK17.PDB" /SUBSYSTEM:CONSOLE /TLBID:1 /DYNAMICBASE /NXCOMPAT /IMPLIB:"C:\REPOSIT\C++PART2\HOMEWORK17\DEBUG\HOMEWORK17.LIB" /MACHINE:X86 DEBUG\HOMEWORK17.OBJ
